…
### 2.1 (2.5 points)

Based on the definition above, can you identify if your data is tidy or
untidy? Go through all your columns, or if you have \>8 variables, just
pick 8, and explain whether the data is untidy or tidy.

<!--------------------------- Start your work below --------------------------->

``` r
cancer_sample
```

    ## # A tibble: 569 × 32
    ##          ID diagnosis radius_m…¹ textu…² perim…³ area_…⁴ smoot…⁵ compa…⁶ conca…⁷
    ##       <dbl> <chr>          <dbl>   <dbl>   <dbl>   <dbl>   <dbl>   <dbl>   <dbl>
    ##  1   842302 M               18.0    10.4   123.    1001   0.118   0.278   0.300 
    ##  2   842517 M               20.6    17.8   133.    1326   0.0847  0.0786  0.0869
    ##  3 84300903 M               19.7    21.2   130     1203   0.110   0.160   0.197 
    ##  4 84348301 M               11.4    20.4    77.6    386.  0.142   0.284   0.241 
    ##  5 84358402 M               20.3    14.3   135.    1297   0.100   0.133   0.198 
    ##  6   843786 M               12.4    15.7    82.6    477.  0.128   0.17    0.158 
    ##  7   844359 M               18.2    20.0   120.    1040   0.0946  0.109   0.113 
    ##  8 84458202 M               13.7    20.8    90.2    578.  0.119   0.164   0.0937
    ##  9   844981 M               13      21.8    87.5    520.  0.127   0.193   0.186 
    ## 10 84501001 M               12.5    24.0    84.0    476.  0.119   0.240   0.227 
    ## # … with 559 more rows, 23 more variables: concave_points_mean <dbl>,
    ## #   symmetry_mean <dbl>, fractal_dimension_mean <dbl>, radius_se <dbl>,
    ## #   texture_se <dbl>, perimeter_se <dbl>, area_se <dbl>, smoothness_se <dbl>,
    ## #   compactness_se <dbl>, concavity_se <dbl>, concave_points_se <dbl>,
    ## #   symmetry_se <dbl>, fractal_dimension_se <dbl>, radius_worst <dbl>,
    ## #   texture_worst <dbl>, perimeter_worst <dbl>, area_worst <dbl>,
    ## #   smoothness_worst <dbl>, compactness_worst <dbl>, concavity_worst <dbl>, …
…
``` r
new_cancer_sample = cancer_sample%>%
  select(ID, 
         diagnosis, 
         radius_mean, 
         texture_mean, 
         perimeter_mean, 
         area_mean, 
         smoothness_mean, 
         compactness_mean)
new_cancer_sample
```

    ## # A tibble: 569 × 8
    ##          ID diagnosis radius_mean texture_mean perimet…¹ area_…² smoot…³ compa…⁴
    ##       <dbl> <chr>           <dbl>        <dbl>     <dbl>   <dbl>   <dbl>   <dbl>
    ##  1   842302 M                18.0         10.4     123.    1001   0.118   0.278 
    ##  2   842517 M                20.6         17.8     133.    1326   0.0847  0.0786
    ##  3 84300903 M                19.7         21.2     130     1203   0.110   0.160 
    ##  4 84348301 M                11.4         20.4      77.6    386.  0.142   0.284 
    ##  5 84358402 M                20.3         14.3     135.    1297   0.100   0.133 
    ##  6   843786 M                12.4         15.7      82.6    477.  0.128   0.17  
    ##  7   844359 M                18.2         20.0     120.    1040   0.0946  0.109 
    ##  8 84458202 M                13.7         20.8      90.2    578.  0.119   0.164 
    ##  9   844981 M                13           21.8      87.5    520.  0.127   0.193 
    ## 10 84501001 M                12.5         24.0      84.0    476.  0.119   0.240 
    ## # … with 559 more rows, and abbreviated variable names ¹​perimeter_mean,
    ## #   ²​area_mean, ³​smoothness_mean, ⁴​compactness_mean
…
Since the data is tidy, we are going to untidy it now:

``` r
new_cancer_sample$ID = paste(new_cancer_sample$ID, 
                             new_cancer_sample$diagnosis, 
                             new_cancer_sample$radius_mean,
                             new_cancer_sample$texture_mean,
                             new_cancer_sample$perimeter_mean,
                             new_cancer_sample$area_mean,
                             new_cancer_sample$smoothness_mean,
                             new_cancer_sample$compactness_mean)
new_cancer_sample
```

    ## # A tibble: 569 × 8
    ##    ID                    diagn…¹ radiu…² textu…³ perim…⁴ area_…⁵ smoot…⁶ compa…⁷
    ##    <chr>                 <chr>     <dbl>   <dbl>   <dbl>   <dbl>   <dbl>   <dbl>
    ##  1 842302 M 17.99 10.38… M          18.0    10.4   123.    1001   0.118   0.278 
    ##  2 842517 M 20.57 17.77… M          20.6    17.8   133.    1326   0.0847  0.0786
    ##  3 84300903 M 19.69 21.… M          19.7    21.2   130     1203   0.110   0.160 
    ##  4 84348301 M 11.42 20.… M          11.4    20.4    77.6    386.  0.142   0.284 
    ##  5 84358402 M 20.29 14.… M          20.3    14.3   135.    1297   0.100   0.133 
    ##  6 843786 M 12.45 15.7 … M          12.4    15.7    82.6    477.  0.128   0.17  
    ##  7 844359 M 18.25 19.98… M          18.2    20.0   120.    1040   0.0946  0.109 
    ##  8 84458202 M 13.71 20.… M          13.7    20.8    90.2    578.  0.119   0.164 
    ##  9 844981 M 13 21.82 87… M          13      21.8    87.5    520.  0.127   0.193 
    ## 10 84501001 M 12.46 24.… M          12.5    24.0    84.0    476.  0.119   0.240 
    ## # … with 559 more rows, and abbreviated variable names ¹​diagnosis,
    ## #   ²​radius_mean, ³​texture_mean, ⁴​perimeter_mean, ⁵​area_mean, ⁶​smoothness_mean,
    ## #   ⁷​compactness_mean
…
Next, we need to tidy it again:

``` r
new_cancer_sample = separate(new_cancer_sample, ID, c('ID', 
                                                      'diagnosis', 
                                                      'radius_mean', 
                                                      'texture_mean', 
                                                      'perimeter_mean', 
                                                      'area_mean', 
                                                      'smoothness_mean', 
                                                      'compactness_mean'), sep = " ")
new_cancer_sample
```

    ## # A tibble: 569 × 8
    ##    ID       diagnosis radius_mean texture_mean perimet…¹ area_…² smoot…³ compa…⁴
    ##    <chr>    <chr>     <chr>       <chr>        <chr>     <chr>   <chr>   <chr>  
    ##  1 842302   M         17.99       10.38        122.8     1001    0.1184  0.2776 
    ##  2 842517   M         20.57       17.77        132.9     1326    0.08474 0.07864
    ##  3 84300903 M         19.69       21.25        130       1203    0.1096  0.1599 
    ##  4 84348301 M         11.42       20.38        77.58     386.1   0.1425  0.2839 
    ##  5 84358402 M         20.29       14.34        135.1     1297    0.1003  0.1328 
    ##  6 843786   M         12.45       15.7         82.57     477.1   0.1278  0.17   
    ##  7 844359   M         18.25       19.98        119.6     1040    0.09463 0.109  
    ##  8 84458202 M         13.71       20.83        90.2      577.9   0.1189  0.1645 
    ##  9 844981   M         13          21.82        87.5      519.8   0.1273  0.1932 
    ## 10 84501001 M         12.46       24.04        83.97     475.9   0.1186  0.2396 
    ## # … with 559 more rows, and abbreviated variable names ¹​perimeter_mean,
    ## #   ²​area_mean, ³​smoothness_mean, ⁴​compactness_mean
…
<!--------------------------- Start your work below --------------------------->

Since we will only study *texture_mean* and *area_mean*, we will drop
all other irrelevant columns and only select what we need:

``` r
new_cancer_sample = new_cancer_sample%>%
  select(ID, diagnosis, texture_mean, area_mean)
new_cancer_sample
```

    ## # A tibble: 569 × 4
    ##    ID       diagnosis texture_mean area_mean
    ##    <chr>    <chr>     <chr>        <chr>    
    ##  1 842302   M         10.38        1001     
    ##  2 842517   M         17.77        1326     
    ##  3 84300903 M         21.25        1203     
    ##  4 84348301 M         20.38        386.1    
    ##  5 84358402 M         14.34        1297     
    ##  6 843786   M         15.7         477.1    
    ##  7 844359   M         19.98        1040     
    ##  8 84458202 M         20.83        577.9    
    ##  9 844981   M         21.82        519.8    
    ## 10 84501001 M         24.04        475.9    
    ## # … with 559 more rows

From the output above, we notice that the data type of column
*texture_mean* and *area_mean* is character. In order to make the
further computation easier, we here convert their data type to numeric.

``` r
new_cancer_sample$texture_mean = as.numeric(new_cancer_sample$texture_mean)
new_cancer_sample$area_mean = as.numeric(new_cancer_sample$area_mean)
new_cancer_sample
```

    ## # A tibble: 569 × 4
    ##    ID       diagnosis texture_mean area_mean
    ##    <chr>    <chr>            <dbl>     <dbl>
    ##  1 842302   M                 10.4     1001 
    ##  2 842517   M                 17.8     1326 
    ##  3 84300903 M                 21.2     1203 
    ##  4 84348301 M                 20.4      386.
    ##  5 84358402 M                 14.3     1297 
    ##  6 843786   M                 15.7      477.
    ##  7 844359   M                 20.0     1040 
    ##  8 84458202 M                 20.8      578.
    ##  9 844981   M                 21.8      520.
    ## 10 84501001 M                 24.0      476.
    ## # … with 559 more rows

Next, we will remove the outliers for texture_mean and area_mean:

``` r
new_cancer_sample = new_cancer_sample %>%
  filter( abs(texture_mean - median(texture_mean)) < 3*sd(texture_mean)) %>%
  filter( abs(area_mean - median(area_mean)) < 3*sd(area_mean))
new_cancer_sample
```

    ## # A tibble: 553 × 4
    ##    ID       diagnosis texture_mean area_mean
    ##    <chr>    <chr>            <dbl>     <dbl>
    ##  1 842302   M                 10.4     1001 
    ##  2 842517   M                 17.8     1326 
    ##  3 84300903 M                 21.2     1203 
    ##  4 84348301 M                 20.4      386.
    ##  5 84358402 M                 14.3     1297 
    ##  6 843786   M                 15.7      477.
    ##  7 844359   M                 20.0     1040 
    ##  8 84458202 M                 20.8      578.
    ##  9 844981   M                 21.8      520.
    ## 10 84501001 M                 24.0      476.
    ## # … with 543 more rows
…
``` r
new_cancer_sample = new_cancer_sample %>% 
  mutate(
     area_mean_group = case_when(
        area_mean - mean(area_mean) < 0 ~ 'below avg',
        area_mean - mean(area_mean) == 0 ~ 'equal avg',
        area_mean - mean(area_mean) > 0 ~ 'above avg',
     )
)
new_cancer_sample
```

    ## # A tibble: 553 × 6
    ##    ID       diagnosis texture_mean area_mean texture_mean_group area_mean_group
    ##    <chr>    <chr>            <dbl>     <dbl> <chr>              <chr>          
    ##  1 842302   M                 10.4     1001  below avg          above avg      
    ##  2 842517   M                 17.8     1326  below avg          above avg      
    ##  3 84300903 M                 21.2     1203  above avg          above avg      
    ##  4 84348301 M                 20.4      386. above avg          below avg      
    ##  5 84358402 M                 14.3     1297  below avg          above avg      
    ##  6 843786   M                 15.7      477. below avg          below avg      
    ##  7 844359   M                 20.0     1040  above avg          above avg      
    ##  8 84458202 M                 20.8      578. above avg          below avg      
    ##  9 844981   M                 21.8      520. above avg          below avg      
    ## 10 84501001 M                 24.0      476. above avg          below avg      
    ## # … with 543 more rows
…
``` r
new_cancer_sample = new_cancer_sample %>% 
  mutate(
     area_loc = case_when(
        abs(area_mean - mean(area_mean)) < sd(area_mean) ~ 'one-sd',
        abs(area_mean - mean(area_mean)) < 2*sd(area_mean) ~ 'two-sd',
        abs(area_mean - mean(area_mean)) < 3*sd(area_mean) ~ 'three-sd',
        abs(area_mean - mean(area_mean)) > 3*sd(area_mean) ~ 'other-sd',
     )
)
new_cancer_sample
```

    ## # A tibble: 553 × 7
    ##    ID       diagnosis texture_mean area_mean texture_mean_group area_m…¹ area_…²
    ##    <chr>    <chr>            <dbl>     <dbl> <chr>              <chr>    <chr>  
    ##  1 842302   M                 10.4     1001  below avg          above a… two-sd 
    ##  2 842517   M                 17.8     1326  below avg          above a… three-…
    ##  3 84300903 M                 21.2     1203  above avg          above a… two-sd 
    ##  4 84348301 M                 20.4      386. above avg          below a… one-sd 
    ##  5 84358402 M                 14.3     1297  below avg          above a… three-…
    ##  6 843786   M                 15.7      477. below avg          below a… one-sd 
    ##  7 844359   M                 20.0     1040  above avg          above a… two-sd 
    ##  8 84458202 M                 20.8      578. above avg          below a… one-sd 
    ##  9 844981   M                 21.8      520. above avg          below a… one-sd 
    ## 10 84501001 M                 24.0      476. above avg          below a… one-sd 
    ## # … with 543 more rows, and abbreviated variable names ¹​area_mean_group,
    ## #   ²​area_loc
…
<!-------------------------- Start your work below ---------------------------->

Since we do not have such plot from the last milestone, here we make a
plot for different group of patients based on their texture_mean_group:

``` r
# we first change the type of texture_mean_group 
new_cancer_sample$area_loc = as.factor(new_cancer_sample$area_loc)
new_cancer_sample
```

    ## # A tibble: 553 × 7
    ##    ID       diagnosis texture_mean area_mean texture_mean_group area_m…¹ area_…²
    ##    <chr>    <chr>            <dbl>     <dbl> <chr>              <chr>    <fct>  
    ##  1 842302   M                 10.4     1001  below avg          above a… two-sd 
    ##  2 842517   M                 17.8     1326  below avg          above a… three-…
    ##  3 84300903 M                 21.2     1203  above avg          above a… two-sd 
    ##  4 84348301 M                 20.4      386. above avg          below a… one-sd 
    ##  5 84358402 M                 14.3     1297  below avg          above a… three-…
    ##  6 843786   M                 15.7      477. below avg          below a… one-sd 
    ##  7 844359   M                 20.0     1040  above avg          above a… two-sd 
    ##  8 84458202 M                 20.8      578. above avg          below a… one-sd 
    ##  9 844981   M                 21.8      520. above avg          below a… one-sd 
    ## 10 84501001 M                 24.0      476. above avg          below a… one-sd 
    ## # … with 543 more rows, and abbreviated variable names ¹​area_mean_group,
    ## #   ²​area_loc
…
